%YAML 1.1
%TAG !u! tag:unity3d.com,2011:
--- !u!1045 &1
EditorBuildSettings:
  m_ObjectHideFlags: 0
  serializedVersion: 2
  m_Scenes: []
  m_configObjects:
    Unity.XR.Oculus.Settings: {fileID: 11400000, guid: a37acb10df29c614e8ffbe5e9b3a3a39, type: 2}
    com.unity.xr.management.loader_settings: {fileID: 11400000, guid: 6479909bd37892c40bbf55405c71ae5c, type: 2}
    com.unity.xr.openxr.settings4: {fileID: 11400000, guid: ec04769239db46b4ebcf6ab95f3d0544, type: 2}
