Library\Bee\artifacts\movedfrom\UnityEditor.Graphs.dll_3874781472178845290.movedfrom
Library\Bee\artifacts\movedfrom\UnityEditor.CoreModule.dll_8271213673361171512.movedfrom
Library\Bee\artifacts\movedfrom\UnityEditor.DeviceSimulatorModule.dll_12926098231736346377.movedfrom
Library\Bee\artifacts\movedfrom\UnityEditor.dll_11055184044124180445.movedfrom
Library\Bee\artifacts\movedfrom\UnityEditor.GraphViewModule.dll_9233500213347390990.movedfrom
Library\Bee\artifacts\movedfrom\UnityEditor.PackageManagerUIModule.dll_1768111371139775380.movedfrom
Library\Bee\artifacts\movedfrom\UnityEditor.QuickSearchModule.dll_16790068734540639088.movedfrom
Library\Bee\artifacts\movedfrom\UnityEditor.SceneTemplateModule.dll_16563418962575095793.movedfrom
Library\Bee\artifacts\movedfrom\UnityEditor.UIBuilderModule.dll_15324809047061368642.movedfrom
Library\Bee\artifacts\movedfrom\UnityEditor.UIElementsModule.dll_11938895527986886772.movedfrom
Library\Bee\artifacts\movedfrom\UnityEditor.UIElementsSamplesModule.dll_2858615994822126649.movedfrom
Library\Bee\artifacts\movedfrom\UnityEditor.UIServiceModule.dll_981426300356943708.movedfrom
Library\Bee\artifacts\movedfrom\UnityEditor.UnityConnectModule.dll_14607519074742873838.movedfrom
Library\Bee\artifacts\movedfrom\UnityEngine.AccessibilityModule.dll_1766116258211176334.movedfrom
Library\Bee\artifacts\movedfrom\UnityEngine.AIModule.dll_11582769701707013004.movedfrom
Library\Bee\artifacts\movedfrom\UnityEngine.AndroidJNIModule.dll_2591930495541962570.movedfrom
Library\Bee\artifacts\movedfrom\UnityEngine.AnimationModule.dll_5668193198257564340.movedfrom
Library\Bee\artifacts\movedfrom\UnityEngine.ARModule.dll_6498985290596923989.movedfrom
Library\Bee\artifacts\movedfrom\UnityEngine.AssetBundleModule.dll_3236823143265247330.movedfrom
Library\Bee\artifacts\movedfrom\UnityEngine.AudioModule.dll_7979736256136281766.movedfrom
Library\Bee\artifacts\movedfrom\UnityEngine.ClothModule.dll_15395015275072707978.movedfrom
Library\Bee\artifacts\movedfrom\UnityEngine.ClusterInputModule.dll_5356128276250263988.movedfrom
Library\Bee\artifacts\movedfrom\UnityEngine.ClusterRendererModule.dll_13335013690381841549.movedfrom
Library\Bee\artifacts\movedfrom\UnityEngine.CoreModule.dll_10802469015903096675.movedfrom
Library\Bee\artifacts\movedfrom\UnityEngine.CrashReportingModule.dll_6140450990572166875.movedfrom
Library\Bee\artifacts\movedfrom\UnityEngine.DirectorModule.dll_1983681955397164608.movedfrom
Library\Bee\artifacts\movedfrom\UnityEngine.dll_14704303537312636098.movedfrom
Library\Bee\artifacts\movedfrom\UnityEngine.DSPGraphModule.dll_2366876504218775393.movedfrom
Library\Bee\artifacts\movedfrom\UnityEngine.GameCenterModule.dll_5640104497197406267.movedfrom
Library\Bee\artifacts\movedfrom\UnityEngine.GIModule.dll_4105748743160480678.movedfrom
Library\Bee\artifacts\movedfrom\UnityEngine.GridModule.dll_8312290606368286042.movedfrom
Library\Bee\artifacts\movedfrom\UnityEngine.HotReloadModule.dll_14984097959835108918.movedfrom
Library\Bee\artifacts\movedfrom\UnityEngine.ImageConversionModule.dll_2666546582657363073.movedfrom
Library\Bee\artifacts\movedfrom\UnityEngine.IMGUIModule.dll_12041876908808376967.movedfrom
Library\Bee\artifacts\movedfrom\UnityEngine.InputLegacyModule.dll_13704625870370002515.movedfrom
Library\Bee\artifacts\movedfrom\UnityEngine.InputModule.dll_15362762980991640394.movedfrom
Library\Bee\artifacts\movedfrom\UnityEngine.JSONSerializeModule.dll_8690270101094760472.movedfrom
Library\Bee\artifacts\movedfrom\UnityEngine.LocalizationModule.dll_9845313660909417645.movedfrom
Library\Bee\artifacts\movedfrom\UnityEngine.ParticleSystemModule.dll_12126378437913963113.movedfrom
Library\Bee\artifacts\movedfrom\UnityEngine.PerformanceReportingModule.dll_8727372856242669346.movedfrom
Library\Bee\artifacts\movedfrom\UnityEngine.Physics2DModule.dll_11191277533069468233.movedfrom
Library\Bee\artifacts\movedfrom\UnityEngine.PhysicsModule.dll_6796050015707437623.movedfrom
Library\Bee\artifacts\movedfrom\UnityEngine.ProfilerModule.dll_5606327812327105869.movedfrom
Library\Bee\artifacts\movedfrom\UnityEngine.RuntimeInitializeOnLoadManagerInitializerModule.dll_7989177001714771218.movedfrom
Library\Bee\artifacts\movedfrom\UnityEngine.ScreenCaptureModule.dll_10556921458748009594.movedfrom
Library\Bee\artifacts\movedfrom\UnityEngine.SharedInternalsModule.dll_12183003156816390097.movedfrom
Library\Bee\artifacts\movedfrom\UnityEngine.SpriteMaskModule.dll_3995290696662150581.movedfrom
Library\Bee\artifacts\movedfrom\UnityEngine.SpriteShapeModule.dll_5065615934571993196.movedfrom
Library\Bee\artifacts\movedfrom\UnityEngine.StreamingModule.dll_233735277115679218.movedfrom
Library\Bee\artifacts\movedfrom\UnityEngine.SubstanceModule.dll_16134560491506245632.movedfrom
Library\Bee\artifacts\movedfrom\UnityEngine.SubsystemsModule.dll_11682203405912135112.movedfrom
Library\Bee\artifacts\movedfrom\UnityEngine.TerrainModule.dll_8689386425025946405.movedfrom
Library\Bee\artifacts\movedfrom\UnityEngine.TerrainPhysicsModule.dll_12160904009688048886.movedfrom
Library\Bee\artifacts\movedfrom\UnityEngine.TextCoreModule.dll_12989023598975602256.movedfrom
Library\Bee\artifacts\movedfrom\UnityEngine.TextRenderingModule.dll_13529141128184933487.movedfrom
Library\Bee\artifacts\movedfrom\UnityEngine.TilemapModule.dll_1698787707586790446.movedfrom
Library\Bee\artifacts\movedfrom\UnityEngine.TLSModule.dll_12174994467079193931.movedfrom
Library\Bee\artifacts\movedfrom\UnityEngine.UIElementsModule.dll_11987992329977631167.movedfrom
Library\Bee\artifacts\movedfrom\UnityEngine.UIElementsNativeModule.dll_7134630356075277238.movedfrom
Library\Bee\artifacts\movedfrom\UnityEngine.UIModule.dll_11255025271497974072.movedfrom
Library\Bee\artifacts\movedfrom\UnityEngine.UmbraModule.dll_16830624645273463321.movedfrom
Library\Bee\artifacts\movedfrom\UnityEngine.UNETModule.dll_2922937585210770652.movedfrom
Library\Bee\artifacts\movedfrom\UnityEngine.UnityAnalyticsModule.dll_14405042385865718885.movedfrom
Library\Bee\artifacts\movedfrom\UnityEngine.UnityConnectModule.dll_13265310110677381017.movedfrom
Library\Bee\artifacts\movedfrom\UnityEngine.UnityCurlModule.dll_9351189027245612193.movedfrom
Library\Bee\artifacts\movedfrom\UnityEngine.UnityTestProtocolModule.dll_16388192277892874639.movedfrom
Library\Bee\artifacts\movedfrom\UnityEngine.UnityWebRequestAssetBundleModule.dll_11557826168170488566.movedfrom
Library\Bee\artifacts\movedfrom\UnityEngine.UnityWebRequestAudioModule.dll_17373250456090169786.movedfrom
Library\Bee\artifacts\movedfrom\UnityEngine.UnityWebRequestModule.dll_3936288629508769536.movedfrom
Library\Bee\artifacts\movedfrom\UnityEngine.UnityWebRequestTextureModule.dll_3940256705645855439.movedfrom
Library\Bee\artifacts\movedfrom\UnityEngine.UnityWebRequestWWWModule.dll_14877478570910042891.movedfrom
Library\Bee\artifacts\movedfrom\UnityEngine.VehiclesModule.dll_10613416117298179547.movedfrom
Library\Bee\artifacts\movedfrom\UnityEngine.VFXModule.dll_3014277476865502904.movedfrom
Library\Bee\artifacts\movedfrom\UnityEngine.VideoModule.dll_10648546104395766347.movedfrom
Library\Bee\artifacts\movedfrom\UnityEngine.VirtualTexturingModule.dll_9768308626354891841.movedfrom
Library\Bee\artifacts\movedfrom\UnityEngine.VRModule.dll_17222900083103164080.movedfrom
Library\Bee\artifacts\movedfrom\UnityEngine.WindModule.dll_880717054133915084.movedfrom
Library\Bee\artifacts\movedfrom\UnityEngine.XRModule.dll_2432730381114618894.movedfrom
Library\Bee\artifacts\movedfrom\UnityEditor.Android.Extensions.dll_6999311977777171040.movedfrom
Library\Bee\artifacts\movedfrom\UnityEditor.WindowsStandalone.Extensions.dll_14142012068644800744.movedfrom